GEOG0030
…
Warning: attribute variables are assumed to be spatially constant throughout
all geometries

# inspect
measurement_sites_tesselation

Simple feature collection with 98 features and 2 fields
Geometry type: GEOMETRY
Dimension:     XY
Bounding box:  xmin: 503568.2 ymin: 155850.8 xmax: 561957.5 ymax: 200933.9
Projected CRS: OSGB36 / British National Grid
# A tibble: 98 × 3
   code    no2                                                          geometry
 * <chr> <dbl>                                                    <GEOMETRY [m]>
 1 BG1    16.4 POLYGON ((547785.5 187913.4, 557897 187404.3, 550800.7 184315.1,…
 2 BG2    18.4 POLYGON ((545264.9 181815.5, 545402.2 184801.2, 547703.4 186697.…
 3 BL0    24.0 POLYGON ((529120.3 182395, 529101.2 184092.5, 531261 183754.7, 5…
 4 BQ7    13.9 POLYGON ((546306.3 181181, 549837.9 181565.4, 548349.8 175998.9,…
 5 BT4    38.9 POLYGON ((519912.6 183741.2, 516082 187365.6, 520958.9 189405.3,…
 6 BT5    24.9 POLYGON ((523877.3 190896.9, 524273.2 190424, 524781.6 189259.6,…
 7 BT6    24.6 POLYGON ((521236.1 184358.2, 522982.8 184472, 522330 181976.4, 5…
 8 BT8    23.3 POLYGON ((522982.8 184472, 524217.5 185711.1, 525595.2 182818.7,…
 9 BX1    15.7 MULTIPOLYGON (((550125.4 169173.1, 550132.2 169161.6, 550144.3 1…
10 BX2    15.4 POLYGON ((548349.8 175998.9, 549837.9 181565.4, 550403.4 181822.…
# ℹ 88 more rows
…
