GEOG0030
…
# for split LSOAs: weigh proportionally to the number of 2021 LSOAs
lsoa_lookup_split <- lookup |>
    filter(chgind == "S") |>
    group_by(lsoa11cd) |>
    mutate(n = 1/n())

# re-combine the lookup with updated weightings
lsoa_lookup <- rbind(lsoa_lookup_same, lsoa_lookup_merge, lsoa_lookup_split)

# inspect
lsoa_lookup

# A tibble: 35,786 × 6
# Groups:   lsoa11cd [34,747]
   lsoa11cd  lsoa11nm                  lsoa21cd  lsoa21nm           chgind     n
   <chr>     <chr>                     <chr>     <chr>              <chr>  <dbl>
 1 E01000001 City of London 001A       E01000001 City of London 00… U          1
 2 E01000002 City of London 001B       E01000002 City of London 00… U          1
 3 E01000003 City of London 001C       E01000003 City of London 00… U          1
 4 E01000005 City of London 001E       E01000005 City of London 00… U          1
 5 E01000006 Barking and Dagenham 016A E01000006 Barking and Dagen… U          1
 6 E01000007 Barking and Dagenham 015A E01000007 Barking and Dagen… U          1
 7 E01000008 Barking and Dagenham 015B E01000008 Barking and Dagen… U          1
 8 E01000009 Barking and Dagenham 016B E01000009 Barking and Dagen… U          1
 9 E01000011 Barking and Dagenham 016C E01000011 Barking and Dagen… U          1
10 E01000012 Barking and Dagenham 015D E01000012 Barking and Dagen… U          1
# ℹ 35,776 more rows
…
