GEOG0030
…
# proportions, select columns
lsoa_eth <- lsoa_eth |>
    rowwise() |>
    mutate(eth_pop = sum(across(2:21))) |>
    mutate(across(2:21, ~./eth_pop)) |>
    select(-2)

# inspect
lsoa_eth

# A tibble: 4,994 × 21
# Rowwise: 
   lower_layer_super_output_area…¹ asian_asian_british_…² asian_asian_british_…³
   <chr>                                            <dbl>                  <dbl>
 1 E01000001                                      0.00271                0.0448 
 2 E01000002                                      0.00505                0.0736 
 3 E01000003                                      0.00682                0.0323 
 4 E01000005                                      0.239                  0.0318 
 5 E01000006                                      0.116                  0.00596
 6 E01000007                                      0.113                  0.0148 
 7 E01000008                                      0.110                  0.00445
 8 E01000009                                      0.119                  0.0122 
 9 E01000011                                      0.146                  0.00469
10 E01000012                                      0.122                  0.00298
# ℹ 4,984 more rows
# ℹ abbreviated names: ¹​lower_layer_super_output_areas_code,
#   ²​asian_asian_british_or_asian_welsh_bangladeshi,
#   ³​asian_asian_british_or_asian_welsh_chinese
# ℹ 18 more variables: asian_asian_british_or_asian_welsh_indian <dbl>,
#   asian_asian_british_or_asian_welsh_pakistani <dbl>,
#   asian_asian_british_or_asian_welsh_other_asian <dbl>, …
…
# filter attribute data, add lsoa names
lsoa_eth <- lsoa_eth |>
  filter(lower_layer_super_output_areas_code %in% lsoa21_inner$lsoa21cd)

# add lsoa names
lsoa_eth <- lsoa_eth |>
  left_join(lsoa21[1:2], by = c("lower_layer_super_output_areas_code" = "lsoa21cd"))

# inspect
lsoa_eth

# A tibble: 1,792 × 22
# Rowwise: 
   lower_layer_super_output_areas_code `Asian - Bangladeshi` `Asian - Chinese`
   <chr>                                               <dbl>             <dbl>
 1 E01000842                                         0.00209            0.0265
 2 E01000843                                         0.00167            0.0301
 3 E01000844                                         0.00614            0.0258
 4 E01000845                                         0.0193             0.0273
 5 E01000846                                         0.0586             0.0179
 6 E01000847                                         0.0506             0.0312
 7 E01000848                                         0.00269            0.0249
 8 E01000849                                         0.0125             0.0249
 9 E01000850                                         0.0218             0.113 
10 E01000851                                         0.0216             0.0824
# ℹ 1,782 more rows
# ℹ 19 more variables: `Asian - Indian` <dbl>, `Asian - Pakistani` <dbl>,
#   `Asian - Other` <dbl>, `Black - African` <dbl>, `Black - Caribbean` <dbl>,
#   `Black - Other` <dbl>, `Mixed - Asian` <dbl>,
#   `Mixed - Black African` <dbl>, `Mixed - Black Carribean` <dbl>,
#   `Mixed - Other` <dbl>, `White - British` <dbl>, `White - Irish` <dbl>,
#   `White - Traveller` <dbl>, `White - Roma` <dbl>, `White - Other` <dbl>, …
…
